{
  "project_info": {
    "project_number": "433294923685",
    "firebase_url": "https://fluxstore-a07b5.firebaseio.com",
    "project_id": "fluxstore-a07b5",
    "storage_bucket": "fluxstore-a07b5.appspot.com"
  },
  "client": [
    {
      "client_info": {
        "mobilesdk_app_id": "1:433294923685:android:a7a356cb932b7efc23ba4c",
        "android_client_info": {
          "package_name": "dev.phat0m.fluxstore"
        }
      },
      "oauth_client": [
        {
          "client_id": "433294923685-lql8cq28ba6rqrejitf614niac3lu9n1.apps.googleusercontent.com",
          "client_type": 1,
          "android_info": {
            "package_name": "dev.phat0m.fluxstore",
            "certificate_hash": "be5e9875c015e0f4c1799f1a3773501f6b3bee65"
          }
        },
        {
          "client_id": "433294923685-kbd24qagj6hg11mtm3nfraov3hcjadql.apps.googleusercontent.com",
          "client_type": 3
        }
      ],
      "api_key": [
        {
          "current_key": "AIzaSyBCenawJqBsWGGDf9eXubMJwNwUoUqPbhc"
        }
      ],
      "services": {
        "appinvite_service": {
          "other_platform_oauth_client": [
            {
              "client_id": "433294923685-kbd24qagj6hg11mtm3nfraov3hcjadql.apps.googleusercontent.com",
              "client_type": 3
            }
          ]
        }
      }
    }
  ],
  "configuration_version": "1"
}